<?xml version="1.0" encoding="UTF-8" standalone="no"?>
<!-- Created with Inkscape (http://www.inkscape.org/) -->

<svg
   xmlns:dc="http://purl.org/dc/elements/1.1/"
   xmlns:cc="http://creativecommons.org/ns#"
   xmlns:rdf="http://www.w3.org/1999/02/22-rdf-syntax-ns#"
   xmlns:svg="http://www.w3.org/2000/svg"
   xmlns="http://www.w3.org/2000/svg"
   xmlns:sodipodi="http://sodipodi.sourceforge.net/DTD/sodipodi-0.dtd"
   xmlns:inkscape="http://www.inkscape.org/namespaces/inkscape"
   width="46.302753mm"
   height="13.836739mm"
   viewBox="0 0 164.06488 49.027814"
   id="svg3455"
   version="1.1"
   inkscape:version="0.91 r13725"
   sodipodi:docname="aegir_logo.svg"
   inkscape:export-filename="/Users/ergonlogic/aegir_logo.png"
   inkscape:export-xdpi="90"
   inkscape:export-ydpi="90">
  <defs
     id="defs3457" />
  <sodipodi:namedview
     id="base"
     pagecolor="#ffffff"
     bordercolor="#666666"
     borderopacity="1.0"
     inkscape:pageopacity="0.0"
     inkscape:pageshadow="2"
     inkscape:zoom="4"
     inkscape:cx="131.02035"
     inkscape:cy="15.325777"
     inkscape:document-units="px"
     inkscape:current-layer="layer1"
     showgrid="false"
     inkscape:window-width="1366"
     inkscape:window-height="719"
     inkscape:window-x="0"
     inkscape:window-y="1"
     inkscape:window-maximized="1"
     fit-margin-top="0"
     fit-margin-left="0"
     fit-margin-right="0"
     fit-margin-bottom="0" />
  <metadata
     id="metadata3460">
    <rdf:RDF>
      <cc:Work
         rdf:about="">
        <dc:format>image/svg+xml</dc:format>
        <dc:type
           rdf:resource="http://purl.org/dc/dcmitype/StillImage" />
        <dc:title></dc:title>
      </cc:Work>
    </rdf:RDF>
  </metadata>
  <g
     inkscape:label="Layer 1"
     inkscape:groupmode="layer"
     id="layer1"
     transform="translate(-182.27744,-332.52705)">
    <g
       id="g6152"
       transform="matrix(1.0726552,0,0,1.1700569,-325.02115,230.29554)"
       style="display:inline;fill:#0a1f36;fill-opacity:1">
      <g
         transform="matrix(1.3824225,0,0,1.3824225,-193.58855,-49.517314)"
         style="fill:#0a1f36;fill-opacity:1"
         id="g6154">
        <path
           style="display:inline;overflow:visible;visibility:visible;opacity:1;fill:#0a1f36;fill-opacity:1;fill-rule:nonzero;stroke:none;stroke-width:5;stroke-linecap:square;stroke-linejoin:miter;stroke-miterlimit:4;stroke-dasharray:none;stroke-dashoffset:0;stroke-opacity:1;marker:none;marker-start:none;marker-mid:none;marker-end:none;enable-background:accumulate"
           d="m 529.1538,129.33275 c 0,0 -47.01047,0 -47.01047,0 0,0 12.36511,-30.310618 12.36511,-30.310618 3.74986,0 -9.53598,19.427938 10.625,23.186068 21.84001,4.07111 24.02036,4.78138 24.02036,7.12455 z"
           id="path6156"
           sodipodi:nodetypes="ccsss"
           inkscape:connector-curvature="0" />
        <path
           style="display:inline;overflow:visible;visibility:visible;opacity:1;fill:#0a1f36;fill-opacity:1;fill-rule:nonzero;stroke:none;stroke-width:5;stroke-linecap:square;stroke-linejoin:miter;stroke-miterlimit:4;stroke-dasharray:none;stroke-dashoffset:0;stroke-opacity:1;marker:none;marker-start:none;marker-mid:none;marker-end:none;enable-background:accumulate"
           d="m 494.4833,108.16112 c 0,0 -0.76978,7.94322 15.37954,8.62927 11.34287,0.47947 14.57914,0.71038 14.57914,0.71038 l 2.72193,6.44424 c 0,0 -0.2016,-0.3884 -18.92621,-2.69637 -16.35269,-2.01561 -13.7544,-13.08752 -13.7544,-13.08752 z"
           id="path6158"
           sodipodi:nodetypes="csccsc"
           inkscape:connector-curvature="0" />
        <path
           style="display:inline;overflow:visible;visibility:visible;opacity:1;fill:#0a1f36;fill-opacity:1;fill-rule:nonzero;stroke:none;stroke-width:5;stroke-linecap:square;stroke-linejoin:miter;stroke-miterlimit:4;stroke-dasharray:none;stroke-dashoffset:0;stroke-opacity:1;marker:none;marker-start:none;marker-mid:none;marker-end:none;enable-background:accumulate"
           d="m 495.32782,105.75061 c 1.67806,7.63874 16.57057,8.12275 16.04477,-0.42916 -0.35631,-5.795272 -7.07406,-5.19219 -5.5457,-2.06558 0,0 -2.56409,-1.1124 -2.56409,-1.1124 1.09343,-3.14548 10.97151,-5.705222 15.61906,2.89077 4.64755,8.59599 4.37112,9.65873 4.37112,9.65873 0,0 -3.91482,0.0126 -16.79835,-0.11501 -12.88296,-0.12761 -11.12681,-8.82735 -11.12681,-8.82735 z"
           id="path6160"
           sodipodi:nodetypes="cssszczs"
           inkscape:connector-curvature="0" />
        <circle
           style="display:inline;overflow:visible;visibility:visible;opacity:1;fill:#0a1f36;fill-opacity:1;fill-rule:nonzero;stroke:none;stroke-width:5;stroke-linecap:square;stroke-linejoin:miter;stroke-miterlimit:4;stroke-dasharray:none;stroke-dashoffset:0;stroke-opacity:1;marker:none;marker-start:none;marker-mid:none;marker-end:none;enable-background:accumulate"
           id="path6162"
           transform="matrix(0.8999532,0,0,0.8999532,50.390569,10.161106)"
           cx="505.56061"
           cy="103.49209"
           r="2.8776281" />
      </g>
    </g>
    <path
       sodipodi:nodetypes="cccccccsccccccscscccscssccscccccccccccccscccccccccccscccsccc"
       id="path6164"
       d="m 268.23726,344.43369 c -13.51009,5.59619 -13.50133,25.71267 -13.50133,25.71267 l 5.86281,0.0126 0.57771,-5.50465 9.28407,-0.0126 0,5.51434 19.60812,0 c 0,0 -2.68154,-2.40052 -2.68154,-5.28426 0,0 -10.98211,0 -10.98211,0 l 0,-5.47378 10.94503,0 0,-4.42729 -10.94503,0 0,-5.6987 c 0,0 10.94503,0 10.94503,0 0,-2.64873 2.74784,-4.83455 2.74784,-4.83455 0,0 -21.8606,0 -21.8606,0 z m 32.24877,-0.25287 c -5.75657,0 -9.24752,4.39581 -9.24752,9.92198 l 0,6.60541 c 0,5.35352 3.66502,9.78144 9.19125,9.78144 2.8207,0 5.4111,-1.26977 7.19557,-3.45724 0,0.80585 0.0563,1.66761 0.0563,2.47346 -10e-5,3.97203 -1.95346,6.80211 -6.15569,6.80211 -2.53279,0 -3.84111,-1.11059 -5.4529,-2.89506 l -4.21613,3.56968 c 2.4753,2.82065 5.86984,4.44102 9.66903,4.44102 4.14472,0 7.8471,-1.96959 10.03448,-5.48097 1.32402,-2.12989 1.54598,-3.51175 1.54598,-5.98709 l 0,-25.40941 -5.48103,0 0,3.03573 c -1.95723,-2.18757 -4.2036,-3.40106 -7.1393,-3.40106 z m 39.9818,0 c -2.87819,0 -5.29734,1.27116 -7.13932,3.40106 l 0,-3.03573 -5.53729,0 0,25.60624 5.53729,0 0,-14.78472 c 0,-3.22363 2.31221,-5.70588 5.59346,-5.70588 1.55418,0 2.41698,0.45624 3.62585,1.37732 l 3.79451,-4.77839 c -1.66931,-1.38147 -3.74463,-2.0799 -5.8745,-2.0799 z m -22.80174,0.36533 0,25.60624 5.50917,0 0,-25.60624 -5.50917,0 z m -47.21094,3.93552 c 0,0 0,11.82546 0,11.82546 l -8.62505,0 c 0,0 1.69398,-8.96012 8.62505,-11.831 z m 31.77353,1.18012 c 3.10849,0 5.39665,2.54257 5.39665,5.59341 l 0,3.76652 c 0,3.39628 -1.82771,5.98696 -5.39665,5.98696 -2.93583,0 -5.5373,-2.40329 -5.5373,-5.3967 l 0,-4.35678 c 0,-3.10839 2.42884,-5.59341 5.5373,-5.59341 z"
       style="font-style:normal;font-variant:normal;font-weight:bold;font-stretch:normal;font-size:64px;line-height:110.00000238%;font-family:'AF Battersea Bold';-inkscape-font-specification:'Helvetica Neue Bold';text-align:end;writing-mode:lr-tb;text-anchor:end;display:inline;overflow:visible;visibility:visible;fill:#0a1f36;fill-opacity:1;fill-rule:nonzero;stroke:none;stroke-width:5;stroke-linecap:square;stroke-linejoin:miter;stroke-miterlimit:4;stroke-dashoffset:0;stroke-opacity:1;marker:none;marker-start:none;marker-mid:none;marker-end:none;enable-background:accumulate"
       inkscape:connector-curvature="0" />
  </g>
</svg>
